…
    ## `summarise()` ungrouping output (override with `.groups` argument)

    Path1 <- dfWide %>%
           group_by(Ntype_1990, Ntype_2000) %>%
           summarise(n())

    ## `summarise()` regrouping output by 'Ntype_1990' (override with `.groups` argument)

    Path1

    ## # A tibble: 116 x 3
    ## # Groups:   Ntype_1990 [13]
    ##    Ntype_1990 Ntype_2000 `n()`
    ##    <chr>      <chr>      <int>
    ##  1 B          B            584
    ##  2 B          BA             9
    ##  3 B          BL            50
    ##  4 B          WB             7
    ##  5 B          WBA            1
    ##  6 B          WBLA          42
    ##  7 BA         B              5
    ##  8 BA         BA            76
    ##  9 BA         BL            54
    ## 10 BA         L              2
    ## # ... with 106 more rows

    #write_xlsx(Path1, 'Analysis_Pt2/Pathtemp.xlsx')

    Path2 <- dfWide %>%
      group_by(Ntype_1990, Ntype_2000, Ntype_2010) %>%
      summarise(n())

    ## `summarise()` regrouping output by 'Ntype_1990', 'Ntype_2000' (override with `.groups` argument)

    Path2

    ## # A tibble: 576 x 4
    ## # Groups:   Ntype_1990, Ntype_2000 [116]
    ##    Ntype_1990 Ntype_2000 Ntype_2010 `n()`
    ##    <chr>      <chr>      <chr>      <int>
    ##  1 B          B          B            487
    ##  2 B          B          BL            46
    ##  3 B          B          WA             1
    ##  4 B          B          WB            20
    ##  5 B          B          WBA           12
    ##  6 B          B          WBL            1
    ##  7 B          B          WBLA          17
    ##  8 B          BA         B              3
    ##  9 B          BA         BL             6
    ## 10 B          BL         B              7
    ## # ... with 566 more rows
…
